20180105 20220105  A l'an prochain !
20180104 20220104  Bonne idee
20180103 20220103  Oui, moi aussi
20180103 20220103  Je vais faire mes devoirs
20180103 20220103  Quelles sont tes nouvelles resolutions ?
20180102 20220102  Toi aussi
20180101 20220101  Bonne annee
